…
# Map of Downloads

A `leaflet` map of countries where a package has been downloaded. The
markers will give the country name, display name and the download count.

``` r
mapping_dataset()
```

    ## # A tibble: 93 x 5
    ##    country             latitude longitude display_name         icon             
    ##    <chr>                  <dbl>     <dbl> <chr>                <chr>            
    ##  1 United States          39.8    -100.   United States        https://nominati~
    ##  2 United Kingdom         54.7      -3.28 United Kingdom       https://nominati~
    ##  3 Germany                51.1      10.4  Deutschland          https://nominati~
    ##  4 Hong Kong SAR China    22.4     114.   <U+9999><U+6E2F> Hong Kong, <U+4E2D><U+56FD> https://nominati~
    ##  5 Japan                  36.6     139.   <U+65E5><U+672C>                 https://nominati~
    ##  6 Chile                 -31.8     -71.3  Chile                https://nominati~
    ##  7 Indonesia              -2.48    118.   Indonesia            https://nominati~
    ##  8 Canada                 61.1    -108.   Canada               https://nominati~
    ##  9 Belarus                53.4      27.7  <U+0411><U+0435><U+043B><U+0430><U+0440><U+0443><U+0441><U+044C>             https://nominati~
    ## 10 South Korea            36.6     128.   <U+B300><U+D55C><U+BBFC><U+AD6D>             https://nominati~
    ## # ... with 83 more rows
…
